CellBench Case Study
…
With the wrappers set up we can run our pipeline with very minimal code.

res_metric <- datasets %>%
    apply_methods(normalisation) %>%
    apply_methods(imputation) %>%
    apply_methods(cluster) %>%
    apply_methods(metric)

4 Results

Looking at the results, we will see columns corresponding to the methods applied as well as a final column containing a list of the results of the pipelines.

res_metric

## # A tibble: 72 x 6
##    data     normalisation imputation cluster metric result  
##    <fct>    <fct>         <fct>      <fct>   <fct>  <list>  
##  1 sc_cels none          none       race_id ARI    <dbl [1
##  2 sc_cels none          none       seurat  ARI    <dbl [1
##  3 sc_cels none          none       tscan   ARI    <task_r
##  4 sc_cels none          drimpute   race_id ARI    <dbl [1
##  5 sc_cels none          drimpute   seurat  ARI    <dbl [1
##  6 sc_cels none          drimpute   tscan   ARI    <dbl [1
##  7 sc_cels none          basics     race_id ARI    <dbl [1
##  8 sc_cels none          basics     seurat  ARI    <dbl [1
##  9 sc_cels none          basics     tscan   ARI    <task_r
## 10 sc_cels linnorm       none       race_id ARI    <dbl [1
## #  with 62 more rows
…
# Helper function for use with dplyr::filter, since result column is a list that
# is not compatible with the usual vectorised functions
is_task_error <- function(x) {
    purrr::map_lgl(x, function(obj) is(obj, "task_error"))
}

# Filter out errored entries, convert results to a numeric column and sort based
# on the ARI
res_metric %>%
    filter(!is_task_error(result)) %>%
    mutate(result = as.numeric(result)) %>%
    arrange(desc(result)) %>%
    print(n = 20)

## # A tibble: 64 x 6
##    data       normalisation imputation cluster metric result
##    <fct>      <fct>         <fct>      <fct>   <fct>   <dbl>
##  1 sc_celseq  none          none       seurat  ARI     0.977
##  2 sc_celseq  none          drimpute   seurat  ARI     0.977
##  3 sc_celseq  none          basics     seurat  ARI     0.977
##  4 sc_celseq  linnorm       none       seurat  ARI     0.977
##  5 sc_celseq  linnorm       drimpute   seurat  ARI     0.977
##  6 sc_celseq  linnorm       basics     seurat  ARI     0.977
##  7 sc_celseq  scran         none       seurat  ARI     0.977
##  8 sc_celseq  scran         drimpute   seurat  ARI     0.977
##  9 sc_celseq  scran         basics     seurat  ARI     0.977
## 10 sc_celseq  tmmwzp        none       seurat  ARI     0.977
## 11 sc_celseq  tmmwzp        drimpute   seurat  ARI     0.977
## 12 sc_celseq  tmmwzp        basics     seurat  ARI     0.977
## 13 sc_celseq  tmmwzp        drimpute   tscan   ARI     0.833
## 14 sc_dropseq none          none       tscan   ARI     0.818
## 15 sc_dropseq scran         none       tscan   ARI     0.818
## 16 sc_dropseq none          basics     tscan   ARI     0.774
## 17 sc_dropseq none          none       seurat  ARI     0.763
## 18 sc_dropseq none          basics     seurat  ARI     0.763
## 19 sc_dropseq linnorm       none       seurat  ARI     0.763
## 20 sc_dropseq linnorm       drimpute   seurat  ARI     0.763
## #  with 44 more rows
…
# Filter out errors, convert results to numeric and remove the metric column
# since we only have one
res_metric_filtered <- res_metric %>% 
    filter(!is_task_error(result)) %>%
    mutate(result = as.numeric(result)) %>%
    select(-metric)

# pipeline_collapse generates a new column that summarises the pipeline into a 
# single string
res_metric_summarised <- res_metric_filtered %>%
    pipeline_collapse(drop.steps = FALSE, sep = " > ")

res_metric_summarised

## # A tibble: 64 x 6
##    data   normalisation imputation cluster pipeline   result
##    <fct>  <fct>         <fct>      <fct>   <fct>       <dbl>
##  1 sc_ce none          none       race_id sc_celseq  0.372
##  2 sc_ce none          none       seurat  sc_celseq  0.977
##  3 sc_ce none          drimpute   race_id sc_celseq  0.372
##  4 sc_ce none          drimpute   seurat  sc_celseq  0.977
##  5 sc_ce none          drimpute   tscan   sc_celseq  0.531
##  6 sc_ce none          basics     race_id sc_celseq  0.372
##  7 sc_ce none          basics     seurat  sc_celseq  0.977
##  8 sc_ce linnorm       none       race_id sc_celseq  0.372
##  9 sc_ce linnorm       none       seurat  sc_celseq  0.977
## 10 sc_ce linnorm       drimpute   race_id sc_celseq  0.372
## #  with 54 more rows
…
